{
    "tracks": {
        "href": "https://api.spotify.com/v1/search?query=AC%2FDC&type=track&offset=0&limit=1",
        "items": [
            {
                "album": {
                    "album_type": "album",
                    "artists": [
                        {
                            "external_urls": {
                                "spotify": "https://open.spotify.com/artist/711MCceyCBcFnzjGY4Q7Un"
                            },
                            "href": "https://api.spotify.com/v1/artists/711MCceyCBcFnzjGY4Q7Un",
                            "id": "711MCceyCBcFnzjGY4Q7Un",
                            "name": "AC/DC",
                            "type": "artist",
                            "uri": "spotify:artist:711MCceyCBcFnzjGY4Q7Un"
                        }
                    ],
                    "available_markets": [
                        "AD",
                        "AE",
                        "AG",
                        "AL",
                        "AM",
                        "AO",
                        "AR",
                        "AT",
                        "AU",
                        "AZ",
                        "BA",
                        "BB",
                        "BD",
                        "BE",
                        "BF",
                        "BG",
                        "BH",
                        "BI",
                        "BJ",
                        "BN",
                        "BO",
                        "BR",
                        "BS",
                        "BT",
                        "BW",
                        "BY",
                        "BZ",
                        "CA",
                        "CD",
                        "CG",
                        "CH",
                        "CI",
                        "CL",
                        "CM",
                        "CO",
                        "CR",
                        "CV",
                        "CW",
                        "CY",
                        "CZ",
                        "DE",
                        "DJ",
                        "DK",
                        "DM",
                        "DO",
                        "DZ",
                        "EC",
                        "EE",
                        "EG",
                        "ES",
                        "FI",
                        "FJ",
                        "FM",
                        "FR",
                        "GA",
                        "GB",
                        "GD",
                        "GE",
                        "GH",
                        "GM",
                        "GN",
                        "GQ",
                        "GR",
                        "GT",
                        "GW",
                        "GY",
                        "HK",
                        "HN",
                        "HR",
                        "HT",
                        "HU",
                        "ID",
                        "IE",
                        "IL",
                        "IN",
                        "IQ",
                        "IS",
                        "IT",
                        "JM",
                        "JO",
                        "JP",
                        "KE",
                        "KG",
                        "KH",
                        "KI",
                        "KM",
                        "KN",
                        "KR",
                        "KW",
                        "KZ",
                        "LA",
                        "LB",
                        "LC",
                        "LI",
                        "LK",
                        "LR",
                        "LS",
                        "LT",
                        "LU",
                        "LV",
                        "LY",
                        "MA",
                        "MC",
                        "MD",
                        "ME",
                        "MG",
                        "MH",
                        "MK",
                        "ML",
                        "MN",
                        "MO",
                        "MR",
                        "MT",
                        "MU",
                        "MV",
                        "MW",
                        "MX",
                        "MY",
                        "MZ",
                        "NA",
                        "NE",
                        "NG",
                        "NI",
                        "NL",
                        "NO",
                        "NP",
                        "NR",
                        "NZ",
                        "OM",
                        "PA",
                        "PE",
                        "PG",
                        "PH",
                        "PK",
                        "PL",
                        "PS",
                        "PT",
                        "PW",
                        "PY",
                        "QA",
                        "RO",
                        "RS",
                        "RU",
                        "RW",
                        "SA",
                        "SB",
                        "SC",
                        "SE",
                        "SG",
                        "SI",
                        "SK",
                        "SL",
                        "SM",
                        "SN",
                        "SR",
                        "ST",
                        "SV",
                        "SZ",
                        "TD",
                        "TG",
                        "TH",
                        "TJ",
                        "TL",
                        "TN",
                        "TO",
                        "TR",
                        "TT",
                        "TV",
                        "TW",
                        "TZ",
                        "UA",
                        "UG",
                        "US",
                        "UY",
                        "UZ",
                        "VC",
                        "VE",
                        "VN",
                        "VU",
                        "WS",
                        "XK",
                        "ZA",
                        "ZM",
                        "ZW"
                    ],
                    "external_urls": {
                        "spotify": "https://open.spotify.com/album/6mUdeDZCsExyJLMdAfDuwh"
                    },
                    "href": "https://api.spotify.com/v1/albums/6mUdeDZCsExyJLMdAfDuwh",
                    "id": "6mUdeDZCsExyJLMdAfDuwh",
                    "images": [
                        {
                            "height": 640,
                            "url": "https://i.scdn.co/image/ab67616d0000b2730b51f8d91f3a21e8426361ae",
                            "width": 640
                        },
                        {
                            "height": 300,
                            "url": "https://i.scdn.co/image/ab67616d00001e020b51f8d91f3a21e8426361ae",
                            "width": 300
                        },
                        {
                            "height": 64,
                            "url": "https://i.scdn.co/image/ab67616d000048510b51f8d91f3a21e8426361ae",
                            "width": 64
                        }
                    ],
                    "name": "Back In Black",
                    "release_date": "1980-07-25",
                    "release_date_precision": "day",
                    "total_tracks": 10,
                    "type": "album",
                    "uri": "spotify:album:6mUdeDZCsExyJLMdAfDuwh"
                },
                "artists": [
                    {
                        "external_urls": {
                            "spotify": "https://open.spotify.com/artist/711MCceyCBcFnzjGY4Q7Un"
                        },
                        "href": "https://api.spotify.com/v1/artists/711MCceyCBcFnzjGY4Q7Un",
                        "id": "711MCceyCBcFnzjGY4Q7Un",
                        "name": "AC/DC",
                        "type": "artist",
                        "uri": "spotify:artist:711MCceyCBcFnzjGY4Q7Un"
                    }
                ],
                "available_markets": [
                    "AD",
                    "AE",
                    "AG",
                    "AL",
                    "AM",
                    "AO",
                    "AR",
                    "AT",
                    "AU",
                    "AZ",
                    "BA",
                    "BB",
                    "BD",
                    "BE",
                    "BF",
                    "BG",
                    "BH",
                    "BI",
                    "BJ",
                    "BN",
                    "BO",
                    "BR",
                    "BS",
                    "BT",
                    "BW",
                    "BY",
                    "BZ",
                    "CA",
                    "CD",
                    "CG",
                    "CH",
                    "CI",
                    "CL",
                    "CM",
                    "CO",
                    "CR",
                    "CV",
                    "CW",
                    "CY",
                    "CZ",
                    "DE",
                    "DJ",
                    "DK",
                    "DM",
                    "DO",
                    "DZ",
                    "EC",
                    "EE",
                    "EG",
                    "ES",
                    "FI",
                    "FJ",
                    "FM",
                    "FR",
                    "GA",
                    "GB",
                    "GD",
                    "GE",
                    "GH",
                    "GM",
                    "GN",
                    "GQ",
                    "GR",
                    "GT",
                    "GW",
                    "GY",
                    "HK",
                    "HN",
                    "HR",
                    "HT",
                    "HU",
                    "ID",
                    "IE",
                    "IL",
                    "IN",
                    "IQ",
                    "IS",
                    "IT",
                    "JM",
                    "JO",
                    "JP",
                    "KE",
                    "KG",
                    "KH",
                    "KI",
                    "KM",
                    "KN",
                    "KR",
                    "KW",
                    "KZ",
                    "LA",
                    "LB",
                    "LC",
                    "LI",
                    "LK",
                    "LR",
                    "LS",
                    "LT",
                    "LU",
                    "LV",
                    "LY",
                    "MA",
                    "MC",
                    "MD",
                    "ME",
                    "MG",
                    "MH",
                    "MK",
                    "ML",
                    "MN",
                    "MO",
                    "MR",
                    "MT",
                    "MU",
                    "MV",
                    "MW",
                    "MX",
                    "MY",
                    "MZ",
                    "NA",
                    "NE",
                    "NG",
                    "NI",
                    "NL",
                    "NO",
                    "NP",
                    "NR",
                    "NZ",
                    "OM",
                    "PA",
                    "PE",
                    "PG",
                    "PH",
                    "PK",
                    "PL",
                    "PS",
                    "PT",
                    "PW",
                    "PY",
                    "QA",
                    "RO",
                    "RS",
                    "RU",
                    "RW",
                    "SA",
                    "SB",
                    "SC",
                    "SE",
                    "SG",
                    "SI",
                    "SK",
                    "SL",
                    "SM",
                    "SN",
                    "SR",
                    "ST",
                    "SV",
                    "SZ",
                    "TD",
                    "TG",
                    "TH",
                    "TJ",
                    "TL",
                    "TN",
                    "TO",
                    "TR",
                    "TT",
                    "TV",
                    "TW",
                    "TZ",
                    "UA",
                    "UG",
                    "US",
                    "UY",
                    "UZ",
                    "VC",
                    "VE",
                    "VN",
                    "VU",
                    "WS",
                    "XK",
                    "ZA",
                    "ZM",
                    "ZW"
                ],
                "disc_number": 1,
                "duration_ms": 255493,
                "explicit": "False",
                "external_ids": {
                    "isrc": "AUAP08000046"
                },
                "external_urls": {
                    "spotify": "https://open.spotify.com/track/08mG3Y1vljYA6bvDt4Wqkj"
                },
                "href": "https://api.spotify.com/v1/tracks/08mG3Y1vljYA6bvDt4Wqkj",
                "id": "08mG3Y1vljYA6bvDt4Wqkj",
                "is_local": "False",
                "name": "Back In Black",
                "popularity": 85,
                "preview_url": "https://p.scdn.co/mp3-preview/506bc9a0485990973449b0467791e06174371284?cid=aeeb153629c446a6a68c94b210d20e8f",
                "track_number": 6,
                "type": "track",
                "uri": "spotify:track:08mG3Y1vljYA6bvDt4Wqkj"
            }
        ],
        "limit": 1,
        "next": "https://api.spotify.com/v1/search?query=AC%2FDC&type=track&offset=1&limit=1",
        "offset": 0,
        "previous": "None",
        "total": 4072
    }
}